pdes_fpga_vitis/solution1/sim/report/verilog/event_queue_kernel.log
INFO: [COSIM-47] Using XSIM for RTL simulation.
INFO: [COSIM-14] Instrumenting C test bench ...
   Build using "/afs/eecs.umich.edu/soft/xilinx/2022.1/Vitis_HLS/2022.1/tps/lnx64/gcc-8.3.0/bin/g++"
   Compiling StateBuffer.cpp_pre.cpp.tb.cpp
   Compiling main.cpp_pre.cpp.tb.cpp
   Compiling EventQueue.cpp_pre.cpp.tb.cpp
   Compiling apatb_event_queue_kernel.cpp
   Compiling apatb_event_queue_kernel_ir.ll
   Generating cosim.tv.exe
INFO: [COSIM-302] Starting C TB testing ... 
INFO: [COSIM-333] Generating C post check test bench ...
INFO: [COSIM-12] Generating RTL test bench ...
INFO: [COSIM-1] *** C/RTL co-simulation file generation completed. ***
INFO: [COSIM-323] Starting verilog simulation. 
INFO: [COSIM-15] Starting XSIM ...
INFO: [COSIM-316] Starting C post checking ...
Enqueued 16 events.
Enqueued events:
Event 0: send_time=0, recv_time=9383, data=0, sender_id=2, receiver_id=1, is_anti_message=0
Event 1: send_time=1, recv_time=6915, data=1, sender_id=1, receiver_id=3, is_anti_message=0
Event 2: send_time=2, recv_time=5386, data=2, sender_id=0, receiver_id=1, is_anti_message=0
Event 3: send_time=3, recv_time=1421, data=3, sender_id=2, receiver_id=3, is_anti_message=0
Event 4: send_time=4, recv_time=8690, data=4, sender_id=3, receiver_id=3, is_anti_message=0
Event 5: send_time=5, recv_time=3926, data=5, sender_id=0, receiver_id=2, is_anti_message=0
Event 6: send_time=6, recv_time=9172, data=6, sender_id=0, receiver_id=3, is_anti_message=0
Event 7: send_time=7, recv_time=5368, data=7, sender_id=3, receiver_id=1, is_anti_message=0
Event 8: send_time=8, recv_time=5782, data=8, sender_id=2, receiver_id=2, is_anti_message=0
Event 9: send_time=9, recv_time=5123, data=9, sender_id=3, receiver_id=3, is_anti_message=0
Event 10: send_time=10, recv_time=3929, data=10, sender_id=2, receiver_id=2, is_anti_message=0
Event 11: send_time=11, recv_time=3058, data=11, sender_id=1, receiver_id=3, is_anti_message=0
Event 12: send_time=12, recv_time=1393, data=12, sender_id=0, receiver_id=3, is_anti_message=0
Event 13: send_time=13, recv_time=8042, data=13, sender_id=1, receiver_id=1, is_anti_message=0
Event 14: send_time=14, recv_time=4421, data=14, sender_id=3, receiver_id=0, is_anti_message=0
Event 15: send_time=15, recv_time=8537, data=15, sender_id=2, receiver_id=0, is_anti_message=0

Dequeued 16 events.
Dequeued entries:
Entry 0: send_time=12, recv_time=1393, data=12, sender_id=0, receiver_id=3, is_anti_message=0, is_issued=0, next=3
Entry 1: send_time=3, recv_time=1421, data=3, sender_id=2, receiver_id=3, is_anti_message=0, is_issued=0, next=11
Entry 2: send_time=11, recv_time=3058, data=11, sender_id=1, receiver_id=3, is_anti_message=0, is_issued=0, next=9
Entry 3: send_time=5, recv_time=3926, data=5, sender_id=0, receiver_id=2, is_anti_message=0, is_issued=0, next=10
Entry 4: send_time=10, recv_time=3929, data=10, sender_id=2, receiver_id=2, is_anti_message=0, is_issued=0, next=8
Entry 5: send_time=14, recv_time=4421, data=14, sender_id=3, receiver_id=0, is_anti_message=0, is_issued=0, next=15
Entry 6: send_time=9, recv_time=5123, data=9, sender_id=3, receiver_id=3, is_anti_message=0, is_issued=0, next=1
Entry 7: send_time=7, recv_time=5368, data=7, sender_id=3, receiver_id=1, is_anti_message=0, is_issued=0, next=2
Entry 8: send_time=2, recv_time=5386, data=2, sender_id=0, receiver_id=1, is_anti_message=0, is_issued=0, next=13
Entry 9: send_time=8, recv_time=5782, data=8, sender_id=2, receiver_id=2, is_anti_message=0, is_issued=0, next=65535
Entry 10: send_time=1, recv_time=6915, data=1, sender_id=1, receiver_id=3, is_anti_message=0, is_issued=0, next=4
Entry 11: send_time=13, recv_time=8042, data=13, sender_id=1, receiver_id=1, is_anti_message=0, is_issued=0, next=0
Entry 12: send_time=15, recv_time=8537, data=15, sender_id=2, receiver_id=0, is_anti_message=0, is_issued=0, next=65535
Entry 13: send_time=4, recv_time=8690, data=4, sender_id=3, receiver_id=3, is_anti_message=0, is_issued=0, next=6
Entry 14: send_time=6, recv_time=9172, data=6, sender_id=0, receiver_id=3, is_anti_message=0, is_issued=0, next=65535
Entry 15: send_time=0, recv_time=9383, data=0, sender_id=2, receiver_id=1, is_anti_message=0, is_issued=0, next=65535

Enqueued 16 events.
Enqueued events:
Event 0: send_time=0, recv_time=8315, data=0, sender_id=2, receiver_id=1, is_anti_message=0
Event 1: send_time=1, recv_time=3526, data=1, sender_id=3, receiver_id=0, is_anti_message=0
Event 2: send_time=2, recv_time=9956, data=2, sender_id=1, receiver_id=2, is_anti_message=0
Event 3: send_time=3, recv_time=9170, data=3, sender_id=0, receiver_id=1, is_anti_message=0
Event 4: send_time=4, recv_time=2305, data=4, sender_id=1, receiver_id=0, is_anti_message=0
Event 5: send_time=5, recv_time=6327, data=5, sender_id=0, receiver_id=1, is_anti_message=0
Event 6: send_time=6, recv_time=846, data=6, sender_id=1, receiver_id=1, is_anti_message=0
Event 7: send_time=7, recv_time=5857, data=7, sender_id=0, receiver_id=3, is_anti_message=0
Event 8: send_time=8, recv_time=9582, data=8, sender_id=1, receiver_id=2, is_anti_message=0
Event 9: send_time=9, recv_time=3367, data=9, sender_id=2, receiver_id=0, is_anti_message=0
Event 10: send_time=10, recv_time=4043, data=10, sender_id=2, receiver_id=3, is_anti_message=0
Event 11: send_time=11, recv_time=6808, data=11, sender_id=0, receiver_id=2, is_anti_message=0
Event 12: send_time=12, recv_time=5788, data=12, sender_id=0, receiver_id=3, is_anti_message=0
Event 13: send_time=13, recv_time=2651, data=13, sender_id=2, receiver_id=3, is_anti_message=0
Event 14: send_time=14, recv_time=9932, data=14, sender_id=0, receiver_id=0, is_anti_message=0
Event 15: send_time=15, recv_time=3368, data=15, sender_id=3, receiver_id=0, is_anti_message=0

Dequeued 16 events.
Dequeued entries:
Entry 0: send_time=6, recv_time=846, data=6, sender_id=1, receiver_id=1, is_anti_message=0, is_issued=0, next=1
Entry 1: send_time=4, recv_time=2305, data=4, sender_id=1, receiver_id=0, is_anti_message=0, is_issued=0, next=9
Entry 2: send_time=13, recv_time=2651, data=13, sender_id=2, receiver_id=3, is_anti_message=0, is_issued=0, next=14
Entry 3: send_time=9, recv_time=3367, data=9, sender_id=2, receiver_id=0, is_anti_message=0, is_issued=0, next=12
Entry 4: send_time=15, recv_time=3368, data=15, sender_id=3, receiver_id=0, is_anti_message=0, is_issued=0, next=6
Entry 5: send_time=1, recv_time=3526, data=1, sender_id=3, receiver_id=0, is_anti_message=0, is_issued=0, next=3
Entry 6: send_time=10, recv_time=4043, data=10, sender_id=2, receiver_id=3, is_anti_message=0, is_issued=0, next=5
Entry 7: send_time=12, recv_time=5788, data=12, sender_id=0, receiver_id=3, is_anti_message=0, is_issued=0, next=2
Entry 8: send_time=7, recv_time=5857, data=7, sender_id=0, receiver_id=3, is_anti_message=0, is_issued=0, next=65535
Entry 9: send_time=5, recv_time=6327, data=5, sender_id=0, receiver_id=1, is_anti_message=0, is_issued=0, next=0
Entry 10: send_time=11, recv_time=6808, data=11, sender_id=0, receiver_id=2, is_anti_message=0, is_issued=0, next=7
Entry 11: send_time=0, recv_time=8315, data=0, sender_id=2, receiver_id=1, is_anti_message=0, is_issued=0, next=15
Entry 12: send_time=3, recv_time=9170, data=3, sender_id=0, receiver_id=1, is_anti_message=0, is_issued=0, next=65535
Entry 13: send_time=8, recv_time=9582, data=8, sender_id=1, receiver_id=2, is_anti_message=0, is_issued=0, next=4
Entry 14: send_time=14, recv_time=9932, data=14, sender_id=0, receiver_id=0, is_anti_message=0, is_issued=0, next=65535
Entry 15: send_time=2, recv_time=9956, data=2, sender_id=1, receiver_id=2, is_anti_message=0, is_issued=0, next=65535

Enqueued 16 events.
Enqueued events:
Event 0: send_time=0, recv_time=6226, data=0, sender_id=2, receiver_id=2, is_anti_message=0
Event 1: send_time=1, recv_time=7539, data=1, sender_id=3, receiver_id=2, is_anti_message=0
Event 2: send_time=2, recv_time=1434, data=2, sender_id=2, receiver_id=3, is_anti_message=0
Event 3: send_time=3, recv_time=6601, data=3, sender_id=1, receiver_id=2, is_anti_message=0
Event 4: send_time=4, recv_time=3317, data=4, sender_id=0, receiver_id=0, is_anti_message=0
Event 5: send_time=5, recv_time=756, data=5, sender_id=1, receiver_id=0, is_anti_message=0
Event 6: send_time=6, recv_time=4286, data=6, sender_id=1, receiver_id=1, is_anti_message=0
Event 7: send_time=7, recv_time=9689, data=7, sender_id=0, receiver_id=3, is_anti_message=0
Event 8: send_time=8, recv_time=8440, data=8, sender_id=1, receiver_id=3, is_anti_message=0
Event 9: send_time=9, recv_time=8117, data=9, sender_id=1, receiver_id=3, is_anti_message=0
Event 10: send_time=10, recv_time=4481, data=10, sender_id=3, receiver_id=1, is_anti_message=0
Event 11: send_time=11, recv_time=8927, data=11, sender_id=3, receiver_id=0, is_anti_message=0
Event 12: send_time=12, recv_time=9497, data=12, sender_id=1, receiver_id=2, is_anti_message=0
Event 13: send_time=13, recv_time=6965, data=13, sender_id=2, receiver_id=3, is_anti_message=0
Event 14: send_time=14, recv_time=6219, data=14, sender_id=0, receiver_id=0, is_anti_message=0
Event 15: send_time=15, recv_time=2871, data=15, sender_id=0, receiver_id=1, is_anti_message=0

Issued 16 events.
Issued events:
Event 0: send_time=5, recv_time=756, data=5, sender_id=1, receiver_id=0, is_anti_message=0
Event 1: send_time=2, recv_time=1434, data=2, sender_id=2, receiver_id=3, is_anti_message=0
Event 2: send_time=15, recv_time=2871, data=15, sender_id=0, receiver_id=1, is_anti_message=0
Event 3: send_time=4, recv_time=3317, data=4, sender_id=0, receiver_id=0, is_anti_message=0
Event 4: send_time=6, recv_time=4286, data=6, sender_id=1, receiver_id=1, is_anti_message=0
Event 5: send_time=10, recv_time=4481, data=10, sender_id=3, receiver_id=1, is_anti_message=0
Event 6: send_time=14, recv_time=6219, data=14, sender_id=0, receiver_id=0, is_anti_message=0
Event 7: send_time=0, recv_time=6226, data=0, sender_id=2, receiver_id=2, is_anti_message=0
Event 8: send_time=3, recv_time=6601, data=3, sender_id=1, receiver_id=2, is_anti_message=0
Event 9: send_time=13, recv_time=6965, data=13, sender_id=2, receiver_id=3, is_anti_message=0
Event 10: send_time=1, recv_time=7539, data=1, sender_id=3, receiver_id=2, is_anti_message=0
Event 11: send_time=9, recv_time=8117, data=9, sender_id=1, receiver_id=3, is_anti_message=0
Event 12: send_time=8, recv_time=8440, data=8, sender_id=1, receiver_id=3, is_anti_message=0
Event 13: send_time=11, recv_time=8927, data=11, sender_id=3, receiver_id=0, is_anti_message=0
Event 14: send_time=12, recv_time=9497, data=12, sender_id=1, receiver_id=2, is_anti_message=0
Event 15: send_time=7, recv_time=9689, data=7, sender_id=0, receiver_id=3, is_anti_message=0

Dequeued 16 events.
Dequeued entries:
Entry 0: send_time=5, recv_time=756, data=5, sender_id=1, receiver_id=0, is_anti_message=0, is_issued=1, next=0
Entry 1: send_time=2, recv_time=1434, data=2, sender_id=2, receiver_id=3, is_anti_message=0, is_issued=1, next=11
Entry 2: send_time=15, recv_time=2871, data=15, sender_id=0, receiver_id=1, is_anti_message=0, is_issued=1, next=1
Entry 3: send_time=4, recv_time=3317, data=4, sender_id=0, receiver_id=0, is_anti_message=0, is_issued=1, next=13
Entry 4: send_time=6, recv_time=4286, data=6, sender_id=1, receiver_id=1, is_anti_message=0, is_issued=1, next=6
Entry 5: send_time=10, recv_time=4481, data=10, sender_id=3, receiver_id=1, is_anti_message=0, is_issued=1, next=65535
Entry 6: send_time=14, recv_time=6219, data=14, sender_id=0, receiver_id=0, is_anti_message=0, is_issued=1, next=12
Entry 7: send_time=0, recv_time=6226, data=0, sender_id=2, receiver_id=2, is_anti_message=0, is_issued=1, next=15
Entry 8: send_time=3, recv_time=6601, data=3, sender_id=1, receiver_id=2, is_anti_message=0, is_issued=1, next=3
Entry 9: send_time=13, recv_time=6965, data=13, sender_id=2, receiver_id=3, is_anti_message=0, is_issued=1, next=14
Entry 10: send_time=1, recv_time=7539, data=1, sender_id=3, receiver_id=2, is_anti_message=0, is_issued=1, next=9
Entry 11: send_time=9, recv_time=8117, data=9, sender_id=1, receiver_id=3, is_anti_message=0, is_issued=1, next=5
Entry 12: send_time=8, recv_time=8440, data=8, sender_id=1, receiver_id=3, is_anti_message=0, is_issued=1, next=2
Entry 13: send_time=11, recv_time=8927, data=11, sender_id=3, receiver_id=0, is_anti_message=0, is_issued=1, next=65535
Entry 14: send_time=12, recv_time=9497, data=12, sender_id=1, receiver_id=2, is_anti_message=0, is_issued=1, next=65535
Entry 15: send_time=7, recv_time=9689, data=7, sender_id=0, receiver_id=3, is_anti_message=0, is_issued=1, next=65535

Enqueued 16 events.
Enqueued events:
Event 0: send_time=0, recv_time=9503, data=0, sender_id=3, receiver_id=2, is_anti_message=0
Event 1: send_time=1, recv_time=3368, data=1, sender_id=0, receiver_id=3, is_anti_message=0
Event 2: send_time=2, recv_time=6340, data=2, sender_id=1, receiver_id=0, is_anti_message=0
Event 3: send_time=3, recv_time=723, data=3, sender_id=2, receiver_id=1, is_anti_message=0
Event 4: send_time=4, recv_time=2846, data=4, sender_id=3, receiver_id=1, is_anti_message=0
Event 5: send_time=5, recv_time=3555, data=5, sender_id=3, receiver_id=0, is_anti_message=0
Event 6: send_time=6, recv_time=7764, data=6, sender_id=0, receiver_id=1, is_anti_message=0
Event 7: send_time=7, recv_time=2350, data=7, sender_id=1, receiver_id=0, is_anti_message=0
Event 8: send_time=8, recv_time=7034, data=8, sender_id=0, receiver_id=0, is_anti_message=0
Event 9: send_time=9, recv_time=4914, data=9, sender_id=3, receiver_id=0, is_anti_message=0
Event 10: send_time=10, recv_time=3743, data=10, sender_id=3, receiver_id=3, is_anti_message=0
Event 11: send_time=11, recv_time=8365, data=11, sender_id=3, receiver_id=0, is_anti_message=0
Event 12: send_time=12, recv_time=1432, data=12, sender_id=3, receiver_id=1, is_anti_message=0
Event 13: send_time=13, recv_time=9228, data=13, sender_id=3, receiver_id=3, is_anti_message=0
Event 14: send_time=14, recv_time=1474, data=14, sender_id=1, receiver_id=2, is_anti_message=0
Event 15: send_time=15, recv_time=4395, data=15, sender_id=1, receiver_id=1, is_anti_message=0

Issued 16 events.
Issued events:
Event 0: send_time=3, recv_time=723, data=3, sender_id=2, receiver_id=1, is_anti_message=0
Event 1: send_time=12, recv_time=1432, data=12, sender_id=3, receiver_id=1, is_anti_message=0
Event 2: send_time=14, recv_time=1474, data=14, sender_id=1, receiver_id=2, is_anti_message=0
Event 3: send_time=7, recv_time=2350, data=7, sender_id=1, receiver_id=0, is_anti_message=0
Event 4: send_time=4, recv_time=2846, data=4, sender_id=3, receiver_id=1, is_anti_message=0
Event 5: send_time=1, recv_time=3368, data=1, sender_id=0, receiver_id=3, is_anti_message=0
Event 6: send_time=5, recv_time=3555, data=5, sender_id=3, receiver_id=0, is_anti_message=0
Event 7: send_time=10, recv_time=3743, data=10, sender_id=3, receiver_id=3, is_anti_message=0
Event 8: send_time=15, recv_time=4395, data=15, sender_id=1, receiver_id=1, is_anti_message=0
Event 9: send_time=9, recv_time=4914, data=9, sender_id=3, receiver_id=0, is_anti_message=0
Event 10: send_time=2, recv_time=6340, data=2, sender_id=1, receiver_id=0, is_anti_message=0
Event 11: send_time=8, recv_time=7034, data=8, sender_id=0, receiver_id=0, is_anti_message=0
Event 12: send_time=6, recv_time=7764, data=6, sender_id=0, receiver_id=1, is_anti_message=0
Event 13: send_time=11, recv_time=8365, data=11, sender_id=3, receiver_id=0, is_anti_message=0
Event 14: send_time=13, recv_time=9228, data=13, sender_id=3, receiver_id=3, is_anti_message=0
Event 15: send_time=0, recv_time=9503, data=0, sender_id=3, receiver_id=2, is_anti_message=0

Rollback of LP 0 to time 5000 successful
Dequeued 16 events.
Dequeued entries:
Entry 0: send_time=3, recv_time=723, data=3, sender_id=2, receiver_id=1, is_anti_message=0, is_issued=1, next=0
Entry 1: send_time=12, recv_time=1432, data=12, sender_id=3, receiver_id=1, is_anti_message=0, is_issued=1, next=14
Entry 2: send_time=14, recv_time=1474, data=14, sender_id=1, receiver_id=2, is_anti_message=0, is_issued=1, next=2
Entry 3: send_time=7, recv_time=2350, data=7, sender_id=1, receiver_id=0, is_anti_message=0, is_issued=1, next=3
Entry 4: send_time=4, recv_time=2846, data=4, sender_id=3, receiver_id=1, is_anti_message=0, is_issued=1, next=10
Entry 5: send_time=1, recv_time=3368, data=1, sender_id=0, receiver_id=3, is_anti_message=0, is_issued=1, next=6
Entry 6: send_time=5, recv_time=3555, data=5, sender_id=3, receiver_id=0, is_anti_message=0, is_issued=1, next=13
Entry 7: send_time=10, recv_time=3743, data=10, sender_id=3, receiver_id=3, is_anti_message=0, is_issued=1, next=8
Entry 8: send_time=15, recv_time=4395, data=15, sender_id=1, receiver_id=1, is_anti_message=0, is_issued=1, next=11
Entry 9: send_time=9, recv_time=4914, data=9, sender_id=3, receiver_id=0, is_anti_message=0, is_issued=1, next=12
Entry 10: send_time=2, recv_time=6340, data=2, sender_id=1, receiver_id=0, is_anti_message=0, is_issued=0, next=4
Entry 11: send_time=8, recv_time=7034, data=8, sender_id=0, receiver_id=0, is_anti_message=0, is_issued=0, next=1
Entry 12: send_time=6, recv_time=7764, data=6, sender_id=0, receiver_id=1, is_anti_message=0, is_issued=1, next=65535
Entry 13: send_time=11, recv_time=8365, data=11, sender_id=3, receiver_id=0, is_anti_message=0, is_issued=0, next=65535
Entry 14: send_time=13, recv_time=9228, data=13, sender_id=3, receiver_id=3, is_anti_message=0, is_issued=1, next=65535
Entry 15: send_time=0, recv_time=9503, data=0, sender_id=3, receiver_id=2, is_anti_message=0, is_issued=1, next=65535

Enqueued 16 events.
Enqueued events:
Event 0: send_time=0, recv_time=8235, data=0, sender_id=1, receiver_id=2, is_anti_message=0
Event 1: send_time=1, recv_time=4428, data=1, sender_id=3, receiver_id=3, is_anti_message=0
Event 2: send_time=2, recv_time=5928, data=2, sender_id=1, receiver_id=0, is_anti_message=0
Event 3: send_time=3, recv_time=2404, data=3, sender_id=3, receiver_id=3, is_anti_message=0
Event 4: send_time=4, recv_time=4613, data=4, sender_id=2, receiver_id=2, is_anti_message=0
Event 5: send_time=5, recv_time=6840, data=5, sender_id=0, receiver_id=2, is_anti_message=0
Event 6: send_time=6, recv_time=5128, data=6, sender_id=0, receiver_id=1, is_anti_message=0
Event 7: send_time=7, recv_time=7917, data=7, sender_id=1, receiver_id=0, is_anti_message=0
Event 8: send_time=8, recv_time=3324, data=8, sender_id=3, receiver_id=2, is_anti_message=0
Event 9: send_time=9, recv_time=2183, data=9, sender_id=2, receiver_id=3, is_anti_message=0
Event 10: send_time=10, recv_time=9772, data=10, sender_id=1, receiver_id=0, is_anti_message=0
Event 11: send_time=11, recv_time=5590, data=11, sender_id=1, receiver_id=3, is_anti_message=0
Event 12: send_time=12, recv_time=2954, data=12, sender_id=2, receiver_id=1, is_anti_message=0
Event 13: send_time=13, recv_time=8082, data=13, sender_id=2, receiver_id=0, is_anti_message=0
Event 14: send_time=14, recv_time=197, data=14, sender_id=3, receiver_id=3, is_anti_message=0
Event 15: send_time=15, recv_time=8804, data=15, sender_id=0, receiver_id=3, is_anti_message=0

Issued 8 events.
Issued events:
Event 0: send_time=14, recv_time=197, data=14, sender_id=3, receiver_id=3, is_anti_message=0
Event 1: send_time=9, recv_time=2183, data=9, sender_id=2, receiver_id=3, is_anti_message=0
Event 2: send_time=3, recv_time=2404, data=3, sender_id=3, receiver_id=3, is_anti_message=0
Event 3: send_time=12, recv_time=2954, data=12, sender_id=2, receiver_id=1, is_anti_message=0
Event 4: send_time=8, recv_time=3324, data=8, sender_id=3, receiver_id=2, is_anti_message=0
Event 5: send_time=1, recv_time=4428, data=1, sender_id=3, receiver_id=3, is_anti_message=0
Event 6: send_time=4, recv_time=4613, data=4, sender_id=2, receiver_id=2, is_anti_message=0
Event 7: send_time=6, recv_time=5128, data=6, sender_id=0, receiver_id=1, is_anti_message=0

Commit to time 5000 successful
Dequeued 9 events.
Dequeued entries:
Entry 0: send_time=6, recv_time=5128, data=6, sender_id=0, receiver_id=1, is_anti_message=0, is_issued=1, next=65535
Entry 1: send_time=11, recv_time=5590, data=11, sender_id=1, receiver_id=3, is_anti_message=0, is_issued=0, next=5
Entry 2: send_time=2, recv_time=5928, data=2, sender_id=1, receiver_id=0, is_anti_message=0, is_issued=0, next=10
Entry 3: send_time=5, recv_time=6840, data=5, sender_id=0, receiver_id=2, is_anti_message=0, is_issued=0, next=2
Entry 4: send_time=7, recv_time=7917, data=7, sender_id=1, receiver_id=0, is_anti_message=0, is_issued=0, next=7
Entry 5: send_time=13, recv_time=8082, data=13, sender_id=2, receiver_id=0, is_anti_message=0, is_issued=0, next=9
Entry 6: send_time=0, recv_time=8235, data=0, sender_id=1, receiver_id=2, is_anti_message=0, is_issued=0, next=65535
Entry 7: send_time=15, recv_time=8804, data=15, sender_id=0, receiver_id=3, is_anti_message=0, is_issued=0, next=65535
Entry 8: send_time=10, recv_time=9772, data=10, sender_id=1, receiver_id=0, is_anti_message=0, is_issued=0, next=65535

Events remaining after commit: 9
All tests passed successfully!
Vivado Simulator v2022.1
Copyright 1986-1999, 2001-2022 Xilinx, Inc. All Rights Reserved.
Running: /afs/eecs.umich.edu/soft/xilinx/2022.1/Vivado/2022.1/bin/unwrapped/lnx64.o/xelab xil_defaultlib.apatb_event_queue_kernel_top glbl -Oenable_linking_all_libraries -prj event_queue_kernel.prj -L smartconnect_v1_0 -L axi_protocol_checker_v1_1_12 -L axi_protocol_checker_v1_1_13 -L axis_protocol_checker_v1_1_11 -L axis_protocol_checker_v1_1_12 -L xil_defaultlib -L unisims_ver -L xpm -L floating_point_v7_0_20 -L floating_point_v7_1_14 --lib ieee_proposed=./ieee_proposed -s event_queue_kernel 
Multi-threading is on. Using 10 slave threads.
INFO: [VRFC 10-2263] Analyzing SystemVerilog file "/net/higgins/z/minsikky/PDES-FPGA-VITIS/pdes_fpga_vitis/solution1/sim/verilog/glbl.v" into library work
INFO: [VRFC 10-311] analyzing module glbl
INFO: [VRFC 10-2263] Analyzing SystemVerilog file "/net/higgins/z/minsikky/PDES-FPGA-VITIS/pdes_fpga_vitis/solution1/sim/verilog/event_queue_kernel_g_event_queue_buffer_event_send_time_V_RAM_AUTO_1R1W.v" into library xil_defaultlib
INFO: [VRFC 10-311] analyzing module event_queue_kernel_g_event_queue_buffer_event_send_time_V_RAM_AUTO_1R1W
INFO: [VRFC 10-2263] Analyzing SystemVerilog file "/net/higgins/z/minsikky/PDES-FPGA-VITIS/pdes_fpga_vitis/solution1/sim/verilog/event_queue_kernel_g_event_queue_buffer_next_V_RAM_AUTO_1R1W.v" into library xil_defaultlib
INFO: [VRFC 10-311] analyzing module event_queue_kernel_g_event_queue_buffer_next_V_RAM_AUTO_1R1W
INFO: [VRFC 10-2263] Analyzing SystemVerilog file "/net/higgins/z/minsikky/PDES-FPGA-VITIS/pdes_fpga_vitis/solution1/sim/verilog/event_queue_kernel_event_queue_kernel_Pipeline_VITIS_LOOP_269_1.v" into library xil_defaultlib
INFO: [VRFC 10-311] analyzing module event_queue_kernel_event_queue_kernel_Pipeline_VITIS_LOOP_269_1
INFO: [VRFC 10-2263] Analyzing SystemVerilog file "/net/higgins/z/minsikky/PDES-FPGA-VITIS/pdes_fpga_vitis/solution1/sim/verilog/event_queue_kernel_g_event_queue_buffer_is_issued_V_RAM_AUTO_1R1W.v" into library xil_defaultlib
INFO: [VRFC 10-311] analyzing module event_queue_kernel_g_event_queue_buffer_is_issued_V_RAM_AUTO_1R1W
INFO: [VRFC 10-2263] Analyzing SystemVerilog file "/net/higgins/z/minsikky/PDES-FPGA-VITIS/pdes_fpga_vitis/solution1/sim/verilog/event_queue_kernel_event_queue_kernel_Pipeline_VITIS_LOOP_305_21.v" into library xil_defaultlib
INFO: [VRFC 10-311] analyzing module event_queue_kernel_event_queue_kernel_Pipeline_VITIS_LOOP_305_21
INFO: [VRFC 10-2263] Analyzing SystemVerilog file "/net/higgins/z/minsikky/PDES-FPGA-VITIS/pdes_fpga_vitis/solution1/sim/verilog/event_queue_kernel_event_queue_kernel_Pipeline_VITIS_LOOP_330_1.v" into library xil_defaultlib
INFO: [VRFC 10-311] analyzing module event_queue_kernel_event_queue_kernel_Pipeline_VITIS_LOOP_330_1
INFO: [VRFC 10-2263] Analyzing SystemVerilog file "/net/higgins/z/minsikky/PDES-FPGA-VITIS/pdes_fpga_vitis/solution1/sim/verilog/event_queue_kernel.autotb.v" into library xil_defaultlib
INFO: [VRFC 10-311] analyzing module apatb_event_queue_kernel_top
INFO: [VRFC 10-2263] Analyzing SystemVerilog file "/net/higgins/z/minsikky/PDES-FPGA-VITIS/pdes_fpga_vitis/solution1/sim/verilog/event_queue_kernel_g_event_queue_buffer_event_is_anti_message_V_RAM_AUTO_1R1W.v" into library xil_defaultlib
INFO: [VRFC 10-311] analyzing module event_queue_kernel_g_event_queue_buffer_event_is_anti_message_V_RAM_AUTO_1R1W
INFO: [VRFC 10-2263] Analyzing SystemVerilog file "/net/higgins/z/minsikky/PDES-FPGA-VITIS/pdes_fpga_vitis/solution1/sim/verilog/event_queue_kernel_g_event_queue_buffer_event_recv_time_V_RAM_AUTO_1R1W.v" into library xil_defaultlib
INFO: [VRFC 10-311] analyzing module event_queue_kernel_g_event_queue_buffer_event_recv_time_V_RAM_AUTO_1R1W
INFO: [VRFC 10-2263] Analyzing SystemVerilog file "/net/higgins/z/minsikky/PDES-FPGA-VITIS/pdes_fpga_vitis/solution1/sim/verilog/event_queue_kernel_event_queue_kernel_Pipeline_VITIS_LOOP_305_2.v" into library xil_defaultlib
INFO: [VRFC 10-311] analyzing module event_queue_kernel_event_queue_kernel_Pipeline_VITIS_LOOP_305_2
INFO: [VRFC 10-2263] Analyzing SystemVerilog file "/net/higgins/z/minsikky/PDES-FPGA-VITIS/pdes_fpga_vitis/solution1/sim/verilog/event_queue_kernel.v" into library xil_defaultlib
INFO: [VRFC 10-311] analyzing module event_queue_kernel
INFO: [VRFC 10-2263] Analyzing SystemVerilog file "/net/higgins/z/minsikky/PDES-FPGA-VITIS/pdes_fpga_vitis/solution1/sim/verilog/event_queue_kernel_event_queue_kernel_Pipeline_VITIS_LOOP_229_1.v" into library xil_defaultlib
INFO: [VRFC 10-311] analyzing module event_queue_kernel_event_queue_kernel_Pipeline_VITIS_LOOP_229_1
INFO: [VRFC 10-2263] Analyzing SystemVerilog file "/net/higgins/z/minsikky/PDES-FPGA-VITIS/pdes_fpga_vitis/solution1/sim/verilog/event_queue_kernel_flow_control_loop_pipe_sequential_init.v" into library xil_defaultlib
INFO: [VRFC 10-311] analyzing module event_queue_kernel_flow_control_loop_pipe_sequential_init
INFO: [VRFC 10-2263] Analyzing SystemVerilog file "/net/higgins/z/minsikky/PDES-FPGA-VITIS/pdes_fpga_vitis/solution1/sim/verilog/event_queue_kernel_event_queue_kernel_Pipeline_VITIS_LOOP_305_22.v" into library xil_defaultlib
INFO: [VRFC 10-311] analyzing module event_queue_kernel_event_queue_kernel_Pipeline_VITIS_LOOP_305_22
INFO: [VRFC 10-2263] Analyzing SystemVerilog file "/net/higgins/z/minsikky/PDES-FPGA-VITIS/pdes_fpga_vitis/solution1/sim/verilog/event_queue_kernel_event_queue_kernel_Pipeline_VITIS_LOOP_305_23.v" into library xil_defaultlib
INFO: [VRFC 10-311] analyzing module event_queue_kernel_event_queue_kernel_Pipeline_VITIS_LOOP_305_23
INFO: [VRFC 10-2263] Analyzing SystemVerilog file "/net/higgins/z/minsikky/PDES-FPGA-VITIS/pdes_fpga_vitis/solution1/sim/verilog/event_queue_kernel_g_event_queue_buffer_event_sender_id_V_RAM_AUTO_1R1W.v" into library xil_defaultlib
INFO: [VRFC 10-311] analyzing module event_queue_kernel_g_event_queue_buffer_event_sender_id_V_RAM_AUTO_1R1W
INFO: [VRFC 10-2263] Analyzing SystemVerilog file "/net/higgins/z/minsikky/PDES-FPGA-VITIS/pdes_fpga_vitis/solution1/sim/verilog/event_queue_kernel_mux_42_16_1_1.v" into library xil_defaultlib
INFO: [VRFC 10-311] analyzing module event_queue_kernel_mux_42_16_1_1
INFO: [VRFC 10-2263] Analyzing SystemVerilog file "/net/higgins/z/minsikky/PDES-FPGA-VITIS/pdes_fpga_vitis/solution1/sim/verilog/dataflow_monitor.sv" into library xil_defaultlib
INFO: [VRFC 10-311] analyzing module dataflow_monitor
Starting static elaboration
Pass Through NonSizing Optimizer
Completed static elaboration
Starting simulation data flow analysis
Completed simulation data flow analysis
Time Resolution for simulation is 1ps
Compiling package xil_defaultlib.$unit_dataflow_monitor_sv
Compiling module xil_defaultlib.event_queue_kernel_g_event_queue...
Compiling module xil_defaultlib.event_queue_kernel_g_event_queue...
Compiling module xil_defaultlib.event_queue_kernel_g_event_queue...
Compiling module xil_defaultlib.event_queue_kernel_g_event_queue...
Compiling module xil_defaultlib.event_queue_kernel_g_event_queue...
Compiling module xil_defaultlib.event_queue_kernel_g_event_queue...
Compiling module xil_defaultlib.event_queue_kernel_mux_42_16_1_1...
Compiling module xil_defaultlib.event_queue_kernel_flow_control_...
Compiling module xil_defaultlib.event_queue_kernel_event_queue_k...
Compiling module xil_defaultlib.event_queue_kernel_event_queue_k...
Compiling module xil_defaultlib.event_queue_kernel_event_queue_k...
Compiling module xil_defaultlib.event_queue_kernel_event_queue_k...
Compiling module xil_defaultlib.event_queue_kernel_event_queue_k...
Compiling module xil_defaultlib.event_queue_kernel_event_queue_k...
Compiling module xil_defaultlib.event_queue_kernel_event_queue_k...
